{
  "TrialPlayers": {
    "Phase 1": {
      "Football": {
        "Team 1": {
          "-KggGnreyyoO-zVGud44": {
            "Email": "l@m.com",
            "FullName": "mm",
            "Sport": "Football",
            "TrialTeam": 0,
            "Year": 3
          }
        }
      }
    },
    "Futsal": {
      "Team 1": {
        "-KggGr8PWu6zPE2-E6Ya": {
          "Email": "l@m.com",
          "FullName": "mm",
          "Sport": "Futsal",
          "TrialTeam": 1,
          "Year": 3
        },
        "-KggGrLpO6uMi48I5ypd": {
          "Email": "l@m.com",
          "FullName": "mm",
          "Sport": "Futsal",
          "TrialTeam": 1,
          "Year": 3
        },
        "-KggGrSavlyDrBhrGk_C": {
          "Email": "l@m.com",
          "FullName": "mm",
          "Sport": "Futsal",
          "TrialTeam": 1,
          "Year": 3
        },
        "-KggGrT-i7aIRO9nFt-S": {
          "Email": "l@m.com",
          "FullName": "mm",
          "Sport": "Futsal",
          "TrialTeam": 1,
          "Year": 3
        },
        "-KggGrXL2ijXMbY03Hj8": {
          "Email": "l@m.com",
          "FullName": "mm",
          "Sport": "Futsal",
          "TrialTeam": 1,
          "Year": 3
        },
        "-KggGrXqT-2cvM0h_JRB": {
          "Email": "l@m.com",
          "FullName": "mm",
          "Sport": "Futsal",
          "TrialTeam": 1,
          "Year": 3
        },
        "-KggGrbor0_aSYE5SP-u": {
          "Email": "l@m.com",
          "FullName": "mm",
          "Sport": "Futsal",
          "TrialTeam": 1,
          "Year": 3
        },
        "-KggGv-E5MiHQ1OcGODO": {
          "Email": "l@m.com",
          "FullName": "mm",
          "Sport": "Futsal",
          "TrialTeam": 1,
          "Year": 3
        },
        "-KggGv-Xdfm3kr9cQ2FB": {
          "Email": "l@m.com",
          "FullName": "mm",
          "Sport": "Futsal",
          "TrialTeam": 1,
          "Year": 3
        },
        "-KggGv4ZcdwuhVux3Cc4": {
          "Email": "l@m.com",
          "FullName": "mm",
          "Sport": "Futsal",
          "TrialTeam": 1,
          "Year": 3
        },
        "-KggGvFMzm6wjWiIlM-i": {
          "Email": "l@m.com",
          "FullName": "mm",
          "Sport": "Futsal",
          "TrialTeam": 1,
          "Year": 3
        },
        "-KggHIL8sWOLoyYKdkx_": {
          "Email": "l@m.com",
          "FullName": "mm",
          "Sport": "Futsal",
          "TrialTeam": 1,
          "Year": 3
        },
        "-KggIGXP9FHcwYNlL9_u": {
          "Email": "kk@kk.com",
          "FullName": "nn",
          "Sport": "Futsal",
          "TrialTeam": 1,
          "Year": 1
        },
        "-KggIK53eWo7S5nvo7Rj": {
          "Email": "kk@kk.com",
          "FullName": "nn",
          "Sport": "Futsal",
          "TrialTeam": 1,
          "Year": 1
        },
        "-KggINYQZTGPfHi5WMzS": {
          "Email": "kk@kk.com",
          "FullName": "nn",
          "Sport": "Futsal",
          "TrialTeam": 1,
          "Year": 1
        },
        "-KggINYxh9yiFhE_JW6F": {
          "Email": "kk@kk.com",
          "FullName": "nn",
          "Sport": "Futsal",
          "TrialTeam": 1,
          "Year": 1
        },
        "-KgiIUS2utkhHFsl4Kfh": {
          "Email": "kk@kk.com",
          "FullName": "nn",
          "Sport": "Futsal",
          "TrialTeam": 1,
          "Year": 1
        },
        "-KgiIiqBpeoAIFeQDBrx": {
          "Email": "kk@kk.com",
          "FullName": "nn",
          "Sport": "Futsal",
          "TrialTeam": 1,
          "Year": 1
        },
        "-KgiRbDRvYt-fySRr3CS": {
          "Email": "kk@kk.com",
          "FullName": "nn",
          "Sport": "Futsal",
          "TrialTeam": 1,
          "Year": 1
        },
        "-KgiRqZ9L7a0FGdl0Uue": {
          "Email": "f@f.com",
          "FullName": "dd",
          "Sport": "Futsal",
          "TrialTeam": 1,
          "Year": 1
        },
        "-KgiS5Os3S2zHBn1DAbT": {
          "Email": "fdsfds@f.com",
          "FullName": "dd",
          "Sport": "Futsal",
          "TrialTeam": 1,
          "Year": 1
        },
        "-KgiSA9ZoSf_DxTJTptx": {
          "Email": "fdsfds@f.com",
          "FullName": "dd",
          "Sport": "Futsal",
          "TrialTeam": 1,
          "Year": 1
        },
        "-KgiTGkjSdillghnNenA": {
          "Email": "fsdf@ff.com",
          "FullName": "df",
          "Sport": "Futsal",
          "TrialTeam": 1,
          "Year": 1
        },
        "-KgiTK6gdBuLXNuh2XJ7": {
          "Email": "fsdf@ff.com",
          "FullName": "df",
          "Sport": "Futsal",
          "TrialTeam": 1,
          "Year": 1
        },
        "-KgiTMLzOH_51V92fKWe": {
          "Email": "fsdf@ff.com",
          "FullName": "df",
          "Sport": "Futsal",
          "TrialTeam": 1,
          "Year": 1
        },
        "-KgiTSss0xzafd-rn9Me": {
          "Email": "fsdf@ff.com",
          "FullName": "df",
          "Sport": "Futsal",
          "TrialTeam": 1,
          "Year": 1
        },
        "-KgiTViZxfzsQBs8JQyW": {
          "Email": "fsdf@ff.com",
          "FullName": "df",
          "Sport": "Futsal",
          "TrialTeam": 1,
          "Year": 1
        },
        "-KgiTYLdB-00h8U2Ujll": {
          "Email": "fsdf@ff.com",
          "FullName": "df",
          "Sport": "Futsal",
          "TrialTeam": 1,
          "Year": 1
        },
        "-KgiVX9-hAp9bKYIdBEj": {
          "Email": "fsdf@ff.com",
          "FullName": "df",
          "Sport": "Futsal",
          "TrialTeam": 1,
          "Year": 1
        },
        "-KgiWYrJlkfycQ58x90v": {
          "Email": "rerre@h.bh",
          "FullName": "erer",
          "Sport": "Futsal",
          "TrialTeam": 1,
          "Year": 1
        }
      },
      "Team 2": {
        "-KgiUEp_0mdhjM36RAtP": {
          "Email": "fsdf@ff.com",
          "FullName": "df",
          "Sport": "Futsal",
          "TrialTeam": 2,
          "Year": 1
        },
        "-KgiV0_cRKFmTndIrkHp": {
          "Email": "fsdf@ff.com",
          "FullName": "df",
          "Sport": "Futsal",
          "TrialTeam": 2,
          "Year": 1
        },
        "-KgiVM7KB4LUAECwjk7I": {
          "Email": "fsdf@ff.com",
          "FullName": "df",
          "Sport": "Futsal",
          "TrialTeam": 2,
          "Year": 1
        },
        "-KgiVNb31gMCSDGhPrNV": {
          "Email": "fsdf@ff.com",
          "FullName": "df",
          "Sport": "Futsal",
          "TrialTeam": 2,
          "Year": 1
        },
        "-KgiWiTbHs2XhH5-mps5": {
          "Email": "rerre@h.bh",
          "FullName": "erer",
          "Sport": "Futsal",
          "TrialTeam": 2,
          "Year": 1
        }
      }
    },
    "Hockey": {
      "-KgdhZjIFI2T45UzL-pF": {
        "Email": "",
        "FullName": "",
        "Sport": "Futsal",
        "TrialTeam": 1,
        "Year": 1
      },
      "-KgduU-qjCYiQk-aM22Q": {
        "Email": "",
        "FullName": "",
        "Sport": "Futsal",
        "TrialTeam": 1,
        "Year": 1
      }
    }
  },
  "Phase 2": {
    "-KgiUEp_0mdhjM36RAtP": {
      "Email": "fsdf@ff.com",
      "FullName": "df",
      "NextPhase": "Yes",
      "Phase": 2,
      "Skill1": 0,
      "Skill2": 0,
      "Skill3": 0,
      "Team": 2,
      "Year": 1,
      "id": "-KgiUEp_0mdhjM36RAtP"
    },
    "Team": 1,
    "id": "-KggGr8PWu6zPE2-E6Ya"
  }
}, "TrialTeamInfo": {
  "Football": {
    "NumberOfPlayers": 1,
    "SpecialPlayers": 0,
    "TotalTeams": 0,
    "VarsityTeams": 0
  },
  "Futsal": {
    "NumberOfPlayers": 11,
    "SpecialPlayers": 0,
    "TotalTeams": 2,
    "VarsityTeams": 0
  },
  "football": {
    "NumberOfPlayers": 0,
    "SpecialPlayers": 0,
    "TotalTeams": 0
  },
  "futsal": {
    "NumberOfPlayers": 0,
    "SpecialPlayers": 0,
    "TotalTeams": 0
  },
  "hockey": {
    "NumberOfPlayers": 0,
    "SpecialPlayers": 0,
    "TotalTeams": 0
  }
}, "Tweets": {
  "tweet1": {
    "content": "Hello 1",
    "fullname": "Abdi Bedel",
    "sport": "futsal"
  },
  "tweet2": {
    "content": "Hello 2",
    "fullname": "Abdi Bedel 3",
    "sport": "futsal"
  },
  "tweet3": {
    "content": "Hello 3",
    "fullname": "Abdi Bedel 2",
    "sport": "futsal"
  }
}, "User": {
  "VJiEPKjElNcvJbJ1zMWqHdl0KzA3": {
    "fullname": "Abdi Bedel",
    "role": "admin",
    "sport": "Futsal"
  }
}, "Utils": {
  "pages": {
    "admin": {
      "ratingplayer": true,
      "signup": true
    }
  },
  "positions": {
    "Futsal": {
      "One": "Defender",
      "Three": "Attacker",
      "Two": "Midfielder"
    }
  }
} }
